Getting Started • participantFlowDiagram
…
A third dataset, pretty_labels, can be generated with
the package function get_pretty_labels_template()

pretty_labels_template <- get_pretty_labels_template(
  participant_level_progress = consent_tracking_data,
  parents = steps$parent,
  children = steps$child
)

pretty_labels_template
#> # A tibble: 21 × 4
#>    variable               row_type plain_label                      pretty_label
#>    <chr>                  <chr>    <chr>                            <chr>       
#>  1 interest               label    interest                         interest    
#>  2 interest               level    interest_no                      interest_no 
#>  3 interest               level    interest_yes                     interest_yes
#>  4 eligibility_scheduling label    eligibility_scheduling           eligibility…
#>  5 eligibility_scheduling level    eligibility_scheduling_ltfu      eligibility…
#>  6 eligibility_scheduling level    eligibility_scheduling_unknown   eligibility…
#>  7 eligibility_scheduling level    eligibility_scheduling_unwilling eligibility…
#>  8 eligibility_scheduling level    eligibility_scheduling_willing   eligibility…
#>  9 eligibility            label    eligibility                      eligibility 
#> 10 eligibility            level    eligibility_ltfu                 eligibility…
#> # ℹ 11 more rows
…
